{
  "keys": ["adviserName", "proposalNumber", "proposerName"],
  "sms": "Health Declaration form is required to be uploaded for proposalNumber proposerName as it is more than 21 days from the proposer's eApp signature date. Please refer to email for more information.",
  "email": {
    "subject": "Health Declaration form to be uploaded for proposalNumber",
    "template": "Dear adviserName,<br /><br />Please submit a &quot;Health Declaration&quot; form for proposalNumber as it is more than 21 days from the proposer&rsquo;s signature date on proposal form.<br /><br />Please complete the health declaration form with proposer&rsquo;s signature and upload it via EASE for your supervisor approval.<br /><br />AXA Insurance Pte Ltd<p><img src='cid:part1.1234.56789' height='70' width='75'></p>"
  }
}